# MagicaVoxel @ Ephtracy

# group
o 

# material
mtllib Chest.mtl
usemtl palette

# normals
vn -1 0 0
vn 1 0 0
vn 0 0 1
vn 0 0 -1
vn 0 -1 0
vn 0 1 0

# texcoords
vt 0.0566406 0.5
vt 0.353516 0.5
vt 0.388672 0.5

# verts
v -0.3 0 0.4
v -0.3 0 0.3
v -0.3 0 -0.2
v -0.3 0 -0.3
v -0.3 0.1 0.3
v -0.3 0.1 -0.2
v -0.3 0.2 0.4
v -0.3 0.2 -0.3
v -0.3 0.3 0.4
v -0.3 0.3 0.3
v -0.3 0.3 0.2
v -0.3 0.3 0.1
v -0.3 0.3 0
v -0.3 0.3 -0.1
v -0.3 0.3 -0.2
v -0.3 0.3 -0.3
v -0.3 0.4 0.4
v -0.3 0.4 0.3
v -0.3 0.4 0.2
v -0.3 0.4 0.1
v -0.3 0.4 0
v -0.3 0.4 -0.1
v -0.3 0.4 -0.2
v -0.3 0.4 -0.3
v -0.3 0.5 0.4
v -0.3 0.5 -0.3
v -0.3 0.6 0.4
v -0.3 0.6 -0.3
v 0.1 0 0.4
v 0.1 0 0.3
v 0.1 0 -0.2
v 0.1 0 -0.3
v 0.1 0.1 0.4
v 0.1 0.1 0.3
v 0.1 0.1 -0.2
v 0.1 0.1 -0.3
v -0.2 0 0.4
v -0.2 0 0.3
v -0.2 0 -0.2
v -0.2 0 -0.3
v -0.2 0.1 0.4
v -0.2 0.1 0.3
v -0.2 0.1 -0.2
v -0.2 0.1 -0.3
v 0.2 0 0.4
v 0.2 0 0.3
v 0.2 0 -0.2
v 0.2 0 -0.3
v 0.2 0.1 0.3
v 0.2 0.1 -0.2
v 0.2 0.2 0.4
v 0.2 0.2 -0.3
v 0.2 0.3 0.4
v 0.2 0.3 0.3
v 0.2 0.3 0.2
v 0.2 0.3 0.1
v 0.2 0.3 0
v 0.2 0.3 -0.1
v 0.2 0.3 -0.2
v 0.2 0.3 -0.3
v 0.2 0.4 0.4
v 0.2 0.4 0.3
v 0.2 0.4 0.2
v 0.2 0.4 0.1
v 0.2 0.4 0
v 0.2 0.4 -0.1
v 0.2 0.4 -0.2
v 0.2 0.4 -0.3
v 0.2 0.5 0.4
v 0.2 0.5 -0.3
v 0.2 0.6 0.4
v 0.2 0.6 -0.3
v -0.3 0 0.4
v -0.3 0.2 0.4
v -0.3 0.3 0.4
v -0.3 0.4 0.4
v -0.3 0.5 0.4
v -0.3 0.6 0.4
v -0.2 0 0.4
v -0.2 0.1 0.4
v -0.2 0.3 0.4
v -0.2 0.4 0.4
v -0.1 0.3 0.4
v -0.1 0.4 0.4
v 0 0.3 0.4
v 0 0.4 0.4
v 0.1 0 0.4
v 0.1 0.1 0.4
v 0.1 0.3 0.4
v 0.1 0.4 0.4
v 0.2 0 0.4
v 0.2 0.2 0.4
v 0.2 0.3 0.4
v 0.2 0.4 0.4
v 0.2 0.5 0.4
v 0.2 0.6 0.4
v -0.3 0 -0.2
v -0.3 0.1 -0.2
v -0.2 0 -0.2
v -0.2 0.1 -0.2
v 0.1 0 -0.2
v 0.1 0.1 -0.2
v 0.2 0 -0.2
v 0.2 0.1 -0.2
v -0.3 0 0.3
v -0.3 0.1 0.3
v -0.2 0 0.3
v -0.2 0.1 0.3
v 0.1 0 0.3
v 0.1 0.1 0.3
v 0.2 0 0.3
v 0.2 0.1 0.3
v -0.3 0 -0.3
v -0.3 0.2 -0.3
v -0.3 0.3 -0.3
v -0.3 0.4 -0.3
v -0.3 0.5 -0.3
v -0.3 0.6 -0.3
v -0.2 0 -0.3
v -0.2 0.1 -0.3
v -0.2 0.3 -0.3
v -0.2 0.4 -0.3
v -0.1 0.3 -0.3
v -0.1 0.4 -0.3
v 0 0.3 -0.3
v 0 0.4 -0.3
v 0.1 0 -0.3
v 0.1 0.1 -0.3
v 0.1 0.3 -0.3
v 0.1 0.4 -0.3
v 0.2 0 -0.3
v 0.2 0.2 -0.3
v 0.2 0.3 -0.3
v 0.2 0.4 -0.3
v 0.2 0.5 -0.3
v 0.2 0.6 -0.3
v -0.3 0 0.4
v -0.2 0 0.4
v 0.1 0 0.4
v 0.2 0 0.4
v -0.3 0 0.3
v -0.2 0 0.3
v 0.1 0 0.3
v 0.2 0 0.3
v -0.3 0 -0.2
v -0.2 0 -0.2
v 0.1 0 -0.2
v 0.2 0 -0.2
v -0.3 0 -0.3
v -0.2 0 -0.3
v 0.1 0 -0.3
v 0.2 0 -0.3
v -0.2 0.1 0.4
v 0.1 0.1 0.4
v -0.3 0.1 0.3
v -0.2 0.1 0.3
v 0.1 0.1 0.3
v 0.2 0.1 0.3
v -0.3 0.1 -0.2
v -0.2 0.1 -0.2
v 0.1 0.1 -0.2
v 0.2 0.1 -0.2
v -0.2 0.1 -0.3
v 0.1 0.1 -0.3
v -0.3 0.6 0.4
v 0.2 0.6 0.4
v -0.2 0.6 0.3
v 0.1 0.6 0.3
v -0.2 0.6 0.2
v -0.1 0.6 0.2
v 0 0.6 0.2
v 0.1 0.6 0.2
v -0.2 0.6 0.1
v -0.1 0.6 0.1
v -0.2 0.6 0
v 0 0.6 0
v 0.1 0.6 0
v -0.2 0.6 -0.1
v 0 0.6 -0.1
v 0.1 0.6 -0.1
v -0.2 0.6 -0.2
v 0 0.6 -0.2
v -0.3 0.6 -0.3
v 0.2 0.6 -0.3

# faces
f 5/2/1 2/2/1 1/2/1
f 6/2/1 4/2/1 3/2/1
f 7/2/1 5/2/1 1/2/1
f 7/2/1 6/2/1 5/2/1
f 8/2/1 4/2/1 6/2/1
f 8/2/1 6/2/1 7/2/1
f 9/3/1 8/3/1 7/3/1
f 10/3/1 8/3/1 9/3/1
f 11/3/1 8/3/1 10/3/1
f 12/3/1 8/3/1 11/3/1
f 13/3/1 8/3/1 12/3/1
f 14/3/1 8/3/1 13/3/1
f 15/3/1 8/3/1 14/3/1
f 16/3/1 8/3/1 15/3/1
f 17/2/1 10/2/1 9/2/1
f 18/3/1 11/3/1 10/3/1
f 18/2/1 10/2/1 17/2/1
f 19/2/1 12/2/1 11/2/1
f 19/3/1 11/3/1 18/3/1
f 20/3/1 13/3/1 12/3/1
f 20/2/1 12/2/1 19/2/1
f 21/2/1 14/2/1 13/2/1
f 21/3/1 13/3/1 20/3/1
f 22/3/1 15/3/1 14/3/1
f 22/2/1 14/2/1 21/2/1
f 23/2/1 16/2/1 15/2/1
f 23/3/1 15/3/1 22/3/1
f 24/2/1 16/2/1 23/2/1
f 25/3/1 18/3/1 17/3/1
f 25/3/1 19/3/1 18/3/1
f 25/3/1 24/3/1 23/3/1
f 25/3/1 23/3/1 22/3/1
f 25/3/1 22/3/1 21/3/1
f 25/3/1 21/3/1 20/3/1
f 25/3/1 20/3/1 19/3/1
f 26/3/1 24/3/1 25/3/1
f 27/2/1 26/2/1 25/2/1
f 28/2/1 26/2/1 27/2/1
f 33/2/1 30/2/1 29/2/1
f 34/2/1 30/2/1 33/2/1
f 35/2/1 32/2/1 31/2/1
f 36/2/1 32/2/1 35/2/1
f 37/2/2 38/2/2 41/2/2
f 41/2/2 38/2/2 42/2/2
f 39/2/2 40/2/2 43/2/2
f 43/2/2 40/2/2 44/2/2
f 45/2/2 46/2/2 49/2/2
f 47/2/2 48/2/2 50/2/2
f 45/2/2 49/2/2 51/2/2
f 49/2/2 50/2/2 51/2/2
f 50/2/2 48/2/2 52/2/2
f 51/2/2 50/2/2 52/2/2
f 51/3/2 52/3/2 53/3/2
f 53/3/2 52/3/2 54/3/2
f 54/3/2 52/3/2 55/3/2
f 55/3/2 52/3/2 56/3/2
f 56/3/2 52/3/2 57/3/2
f 57/3/2 52/3/2 58/3/2
f 58/3/2 52/3/2 59/3/2
f 59/3/2 52/3/2 60/3/2
f 53/2/2 54/2/2 61/2/2
f 54/3/2 55/3/2 62/3/2
f 61/2/2 54/2/2 62/2/2
f 55/2/2 56/2/2 63/2/2
f 62/3/2 55/3/2 63/3/2
f 56/3/2 57/3/2 64/3/2
f 63/2/2 56/2/2 64/2/2
f 57/2/2 58/2/2 65/2/2
f 64/3/2 57/3/2 65/3/2
f 58/3/2 59/3/2 66/3/2
f 65/2/2 58/2/2 66/2/2
f 59/2/2 60/2/2 67/2/2
f 66/3/2 59/3/2 67/3/2
f 67/2/2 60/2/2 68/2/2
f 61/3/2 62/3/2 69/3/2
f 62/3/2 63/3/2 69/3/2
f 67/3/2 68/3/2 69/3/2
f 66/3/2 67/3/2 69/3/2
f 65/3/2 66/3/2 69/3/2
f 64/3/2 65/3/2 69/3/2
f 63/3/2 64/3/2 69/3/2
f 69/3/2 68/3/2 70/3/2
f 69/2/2 70/2/2 71/2/2
f 71/2/2 70/2/2 72/2/2
f 79/2/3 74/2/3 73/2/3
f 80/2/3 74/2/3 79/2/3
f 81/3/3 75/3/3 74/3/3
f 81/2/3 76/2/3 75/2/3
f 82/3/3 77/3/3 76/3/3
f 82/2/3 76/2/3 81/2/3
f 83/3/3 81/3/3 74/3/3
f 83/3/3 82/3/3 81/3/3
f 84/3/3 77/3/3 82/3/3
f 84/3/3 82/3/3 83/3/3
f 85/3/3 83/3/3 74/3/3
f 85/2/3 84/2/3 83/2/3
f 86/3/3 77/3/3 84/3/3
f 86/2/3 84/2/3 85/2/3
f 88/2/3 74/2/3 80/2/3
f 89/3/3 85/3/3 74/3/3
f 89/3/3 86/3/3 85/3/3
f 90/3/3 77/3/3 86/3/3
f 90/3/3 86/3/3 89/3/3
f 91/2/3 88/2/3 87/2/3
f 92/3/3 89/3/3 74/3/3
f 92/2/3 88/2/3 91/2/3
f 92/2/3 74/2/3 88/2/3
f 93/2/3 90/2/3 89/2/3
f 93/3/3 89/3/3 92/3/3
f 94/3/3 77/3/3 90/3/3
f 94/2/3 90/2/3 93/2/3
f 95/2/3 78/2/3 77/2/3
f 95/3/3 77/3/3 94/3/3
f 96/2/3 78/2/3 95/2/3
f 99/2/3 98/2/3 97/2/3
f 100/2/3 98/2/3 99/2/3
f 103/2/3 102/2/3 101/2/3
f 104/2/3 102/2/3 103/2/3
f 105/2/4 106/2/4 107/2/4
f 107/2/4 106/2/4 108/2/4
f 109/2/4 110/2/4 111/2/4
f 111/2/4 110/2/4 112/2/4
f 113/2/4 114/2/4 119/2/4
f 119/2/4 114/2/4 120/2/4
f 114/3/4 115/3/4 121/3/4
f 115/2/4 116/2/4 121/2/4
f 116/3/4 117/3/4 122/3/4
f 121/2/4 116/2/4 122/2/4
f 114/3/4 121/3/4 123/3/4
f 121/3/4 122/3/4 123/3/4
f 122/3/4 117/3/4 124/3/4
f 123/3/4 122/3/4 124/3/4
f 114/3/4 123/3/4 125/3/4
f 123/2/4 124/2/4 125/2/4
f 124/3/4 117/3/4 126/3/4
f 125/2/4 124/2/4 126/2/4
f 120/2/4 114/2/4 128/2/4
f 114/3/4 125/3/4 129/3/4
f 125/3/4 126/3/4 129/3/4
f 126/3/4 117/3/4 130/3/4
f 129/3/4 126/3/4 130/3/4
f 127/2/4 128/2/4 131/2/4
f 114/3/4 129/3/4 132/3/4
f 131/2/4 128/2/4 132/2/4
f 128/2/4 114/2/4 132/2/4
f 129/2/4 130/2/4 133/2/4
f 132/3/4 129/3/4 133/3/4
f 130/3/4 117/3/4 134/3/4
f 133/2/4 130/2/4 134/2/4
f 117/2/4 118/2/4 135/2/4
f 134/3/4 117/3/4 135/3/4
f 135/2/4 118/2/4 136/2/4
f 141/2/5 138/2/5 137/2/5
f 142/2/5 138/2/5 141/2/5
f 143/2/5 140/2/5 139/2/5
f 144/2/5 140/2/5 143/2/5
f 149/2/5 146/2/5 145/2/5
f 150/2/5 146/2/5 149/2/5
f 151/2/5 148/2/5 147/2/5
f 152/2/5 148/2/5 151/2/5
f 156/2/5 154/2/5 153/2/5
f 157/2/5 154/2/5 156/2/5
f 159/2/5 156/2/5 155/2/5
f 159/2/5 158/2/5 157/2/5
f 159/2/5 157/2/5 156/2/5
f 160/2/5 158/2/5 159/2/5
f 161/2/5 158/2/5 160/2/5
f 162/2/5 158/2/5 161/2/5
f 163/2/5 161/2/5 160/2/5
f 164/2/5 161/2/5 163/2/5
f 165/2/6 166/2/6 167/2/6
f 167/2/6 166/2/6 168/2/6
f 165/2/6 167/2/6 169/2/6
f 167/1/6 168/1/6 169/1/6
f 169/1/6 168/1/6 170/1/6
f 170/1/6 168/1/6 171/1/6
f 168/2/6 166/2/6 172/2/6
f 171/1/6 168/1/6 172/1/6
f 165/2/6 169/2/6 173/2/6
f 169/2/6 170/2/6 173/2/6
f 170/1/6 171/1/6 174/1/6
f 173/2/6 170/2/6 174/2/6
f 165/2/6 173/2/6 175/2/6
f 173/1/6 174/1/6 175/1/6
f 174/1/6 171/1/6 176/1/6
f 175/1/6 174/1/6 176/1/6
f 171/2/6 172/2/6 176/2/6
f 172/2/6 166/2/6 177/2/6
f 176/2/6 172/2/6 177/2/6
f 165/2/6 175/2/6 178/2/6
f 175/2/6 176/2/6 178/2/6
f 176/1/6 177/1/6 179/1/6
f 178/2/6 176/2/6 179/2/6
f 177/2/6 166/2/6 180/2/6
f 179/1/6 177/1/6 180/1/6
f 178/1/6 179/1/6 181/1/6
f 165/2/6 178/2/6 181/2/6
f 179/2/6 180/2/6 182/2/6
f 181/1/6 179/1/6 182/1/6
f 165/2/6 181/2/6 183/2/6
f 181/2/6 182/2/6 183/2/6
f 180/2/6 166/2/6 184/2/6
f 183/2/6 182/2/6 184/2/6
f 182/2/6 180/2/6 184/2/6
