# MagicaVoxel @ Ephtracy

# group
o 

# material
mtllib room4.mtl
usemtl palette

# normals
vn -1 0 0
vn 1 0 0
vn 0 0 1
vn 0 0 -1
vn 0 -1 0
vn 0 1 0

# texcoords
vt 0.435547 0.5
vt 0.556641 0.5

# verts
v -1 0 1
v -1 0 -1
v -1 0.8 1
v -1 0.8 -1
v -0.1 0.1 -0.1
v -0.1 0.1 -0.9
v -0.1 0.5 -0.1
v -0.1 0.5 -0.9
v 0.1 0 1
v 0.1 0 0.2
v 0.1 0.1 0.2
v 0.1 0.3 1
v 0.1 0.3 0.2
v 0.9 0.1 1
v 0.9 0.1 0.3
v 0.9 0.1 -0.1
v 0.9 0.1 -0.9
v 0.9 0.5 0.3
v 0.9 0.5 -0.1
v 0.9 0.8 1
v 0.9 0.8 -0.9
v -0.9 0.1 1
v -0.9 0.1 0.2
v -0.9 0.1 -0.9
v -0.9 0.8 1
v -0.9 0.8 -0.9
v -0.2 0 1
v -0.2 0 0.2
v -0.2 0.1 1
v -0.2 0.1 0.2
v 0.1 0.1 -0.1
v 0.1 0.1 -0.9
v 0.1 0.5 -0.1
v 0.1 0.5 -0.9
v 0.2 0.1 1
v 0.2 0.1 0.2
v 0.2 0.3 1
v 0.2 0.3 0.2
v 1 0 1
v 1 0 -1
v 1 0.1 0.3
v 1 0.1 -0.1
v 1 0.5 0.3
v 1 0.5 -0.1
v 1 0.8 1
v 1 0.8 -1
v -1 0 1
v -1 0.8 1
v -0.9 0 1
v -0.9 0.1 1
v -0.9 0.8 1
v -0.2 0 1
v -0.2 0.1 1
v 0.1 0 1
v 0.1 0.3 1
v 0.2 0.1 1
v 0.2 0.3 1
v 0.9 0.1 1
v 0.9 0.8 1
v 1 0 1
v 1 0.8 1
v -0.2 0 0.2
v -0.2 0.1 0.2
v 0.1 0 0.2
v 0.1 0.1 0.2
v -0.1 0.1 -0.1
v -0.1 0.5 -0.1
v 0.1 0.1 -0.1
v 0.1 0.5 -0.1
v 0.9 0.1 -0.1
v 0.9 0.5 -0.1
v 1 0.1 -0.1
v 1 0.5 -0.1
v -0.9 0.1 -0.9
v -0.9 0.8 -0.9
v -0.1 0.1 -0.9
v -0.1 0.5 -0.9
v 0.1 0.1 -0.9
v 0.1 0.5 -0.9
v 0.9 0.1 -0.9
v 0.9 0.8 -0.9
v 0.9 0.1 0.3
v 0.9 0.5 0.3
v 1 0.1 0.3
v 1 0.5 0.3
v 0.1 0.1 0.2
v 0.1 0.3 0.2
v 0.2 0.1 0.2
v 0.2 0.3 0.2
v -1 0 -1
v -1 0.8 -1
v 1 0 -1
v 1 0.8 -1
v -1 0 1
v -0.9 0 1
v -0.2 0 1
v 0.1 0 1
v 1 0 1
v -0.9 0 0.2
v -0.2 0 0.2
v 0.1 0 0.2
v 0.1 0 -0.1
v 0.9 0 -0.1
v 0.1 0 -0.9
v 0.9 0 -0.9
v -1 0 -1
v 1 0 -1
v 0.9 0.5 0.3
v 1 0.5 0.3
v 0.9 0.5 -0.1
v 1 0.5 -0.1
v -0.9 0.1 1
v -0.2 0.1 1
v 0.2 0.1 1
v 0.9 0.1 1
v 0.9 0.1 0.3
v 1 0.1 0.3
v -0.9 0.1 0.2
v -0.2 0.1 0.2
v 0.1 0.1 0.2
v 0.2 0.1 0.2
v -0.1 0.1 -0.1
v 0.1 0.1 -0.1
v 0.9 0.1 -0.1
v 1 0.1 -0.1
v -0.9 0.1 -0.9
v -0.1 0.1 -0.9
v 0.1 0.1 -0.9
v 0.9 0.1 -0.9
v 0.1 0.3 1
v 0.2 0.3 1
v 0.1 0.3 0.2
v 0.2 0.3 0.2
v -0.1 0.5 -0.1
v 0.1 0.5 -0.1
v -0.1 0.5 -0.9
v 0.1 0.5 -0.9
v -1 0.8 1
v -0.9 0.8 1
v 0.9 0.8 1
v 1 0.8 1
v -0.9 0.8 -0.9
v 0.9 0.8 -0.9
v -1 0.8 -1
v 1 0.8 -1

# faces
f 3/1/1 2/1/1 1/1/1
f 4/1/1 2/1/1 3/1/1
f 7/1/1 6/1/1 5/1/1
f 8/1/1 6/1/1 7/1/1
f 11/1/1 10/1/1 9/1/1
f 12/1/1 11/1/1 9/1/1
f 13/1/1 11/1/1 12/1/1
f 18/1/1 15/1/1 14/1/1
f 19/1/1 17/1/1 16/1/1
f 20/1/1 18/1/1 14/1/1
f 20/1/1 19/1/1 18/1/1
f 21/1/1 17/1/1 19/1/1
f 21/1/1 19/1/1 20/1/1
f 22/1/2 23/1/2 25/1/2
f 23/1/2 24/1/2 25/1/2
f 25/1/2 24/1/2 26/1/2
f 27/2/2 28/2/2 29/2/2
f 29/2/2 28/2/2 30/2/2
f 31/1/2 32/1/2 33/1/2
f 33/1/2 32/1/2 34/1/2
f 35/1/2 36/1/2 37/1/2
f 37/1/2 36/1/2 38/1/2
f 39/1/2 40/1/2 41/1/2
f 41/1/2 40/1/2 42/1/2
f 39/1/2 41/1/2 43/1/2
f 42/1/2 40/1/2 44/1/2
f 39/1/2 43/1/2 45/1/2
f 43/1/2 44/1/2 45/1/2
f 44/1/2 40/1/2 46/1/2
f 45/1/2 44/1/2 46/1/2
f 49/1/3 48/1/3 47/1/3
f 50/1/3 48/1/3 49/1/3
f 51/1/3 48/1/3 50/1/3
f 52/2/3 50/2/3 49/2/3
f 53/2/3 50/2/3 52/2/3
f 56/1/3 55/1/3 54/1/3
f 57/1/3 55/1/3 56/1/3
f 58/1/3 56/1/3 54/1/3
f 60/1/3 58/1/3 54/1/3
f 60/1/3 59/1/3 58/1/3
f 61/1/3 59/1/3 60/1/3
f 64/1/3 63/1/3 62/1/3
f 65/1/3 63/1/3 64/1/3
f 68/1/3 67/1/3 66/1/3
f 69/1/3 67/1/3 68/1/3
f 72/1/3 71/1/3 70/1/3
f 73/1/3 71/1/3 72/1/3
f 76/1/3 75/1/3 74/1/3
f 77/1/3 75/1/3 76/1/3
f 79/1/3 75/1/3 77/1/3
f 80/1/3 79/1/3 78/1/3
f 81/1/3 75/1/3 79/1/3
f 81/1/3 79/1/3 80/1/3
f 82/1/4 83/1/4 84/1/4
f 84/1/4 83/1/4 85/1/4
f 86/1/4 87/1/4 88/1/4
f 88/1/4 87/1/4 89/1/4
f 90/1/4 91/1/4 92/1/4
f 92/1/4 91/1/4 93/1/4
f 99/1/5 95/1/5 94/1/5
f 99/2/5 96/2/5 95/2/5
f 100/2/5 96/2/5 99/2/5
f 101/1/5 98/1/5 97/1/5
f 102/1/5 100/1/5 99/1/5
f 102/1/5 101/1/5 100/1/5
f 102/1/5 98/1/5 101/1/5
f 103/1/5 98/1/5 102/1/5
f 104/1/5 102/1/5 99/1/5
f 104/2/5 103/2/5 102/2/5
f 105/1/5 98/1/5 103/1/5
f 105/2/5 103/2/5 104/2/5
f 106/1/5 99/1/5 94/1/5
f 106/1/5 104/1/5 99/1/5
f 106/1/5 105/1/5 104/1/5
f 107/1/5 98/1/5 105/1/5
f 107/1/5 105/1/5 106/1/5
f 110/1/5 109/1/5 108/1/5
f 111/1/5 109/1/5 110/1/5
f 114/1/6 115/1/6 116/1/6
f 112/2/6 113/2/6 118/2/6
f 118/2/6 113/2/6 119/2/6
f 116/1/6 117/1/6 121/1/6
f 114/1/6 116/1/6 121/1/6
f 119/1/6 120/1/6 122/1/6
f 120/1/6 121/1/6 122/1/6
f 118/1/6 119/1/6 122/1/6
f 122/1/6 121/1/6 123/1/6
f 121/1/6 117/1/6 124/1/6
f 123/1/6 121/1/6 124/1/6
f 124/1/6 117/1/6 125/1/6
f 118/1/6 122/1/6 126/1/6
f 126/1/6 122/1/6 127/1/6
f 123/2/6 124/2/6 128/2/6
f 128/2/6 124/2/6 129/2/6
f 130/1/6 131/1/6 132/1/6
f 132/1/6 131/1/6 133/1/6
f 134/1/6 135/1/6 136/1/6
f 136/1/6 135/1/6 137/1/6
f 138/1/6 139/1/6 142/1/6
f 140/1/6 141/1/6 143/1/6
f 138/1/6 142/1/6 144/1/6
f 142/1/6 143/1/6 144/1/6
f 143/1/6 141/1/6 145/1/6
f 144/1/6 143/1/6 145/1/6
