# MagicaVoxel @ Ephtracy

# group
o 

# material
mtllib Torch.mtl
usemtl palette

# normals
vn -1 0 0
vn 1 0 0
vn 0 0 1
vn 0 0 -1
vn 0 -1 0
vn 0 1 0

# texcoords
vt 0.146484 0.5
vt 0.271484 0.5
vt 0.302734 0.5
vt 0.935547 0.5

# verts
v -0.3 0.8 0.3
v -0.3 0.8 -0.2
v -0.3 0.9 0.3
v -0.3 0.9 0.2
v -0.3 0.9 -0.1
v -0.3 0.9 -0.2
v -0.3 1 0.2
v -0.3 1 -0.1
v -0.2 0.2 0.1
v -0.2 0.2 0
v -0.2 0.5 0.2
v -0.2 0.5 0.1
v -0.2 0.5 0
v -0.2 0.5 -0.1
v -0.2 0.7 0.4
v -0.2 0.7 0.3
v -0.2 0.8 0.3
v -0.2 0.8 0.2
v -0.2 0.8 -0.1
v -0.2 0.9 0.3
v -0.2 0.9 0.2
v -0.2 0.9 -0.1
v -0.2 0.9 -0.2
v -0.2 1 0.3
v -0.2 1 0.2
v -0.2 1 -0.1
v -0.2 1 -0.2
v -0.2 1.1 0.4
v -0.2 1.1 0.3
v -0.2 1.2 0.4
v -0.2 1.2 0.3
v -0.1 0 0.1
v -0.1 0 0
v -0.1 0.2 0.1
v -0.1 0.2 0
v -0.1 0.3 0.2
v -0.1 0.3 0.1
v -0.1 0.3 0
v -0.1 0.3 -0.1
v -0.1 0.5 0.2
v -0.1 0.5 0.1
v -0.1 0.5 0
v -0.1 0.5 -0.1
v -0.1 0.6 0.4
v -0.1 0.6 0.2
v -0.1 0.7 0.4
v -0.1 0.7 0.3
v -0.1 0.8 0.3
v -0.1 0.8 0.2
v -0.1 1.2 0.4
v -0.1 1.2 0.3
v -0.1 1.3 0.4
v -0.1 1.3 0.3
v 0 0 0.1
v 0 0 0
v 0 0.3 0.2
v 0 0.3 0.1
v 0 0.3 0
v 0 0.3 -0.1
v 0 0.5 0.2
v 0 0.5 0.1
v 0 0.5 0
v 0 0.5 -0.1
v 0 0.6 0.4
v 0 0.6 0.2
v 0 0.7 0.4
v 0 0.7 0.3
v 0 0.8 0.3
v 0 0.8 0.2
v 0 0.9 0.3
v 0 0.9 0.2
v 0 1 0.3
v 0 1 0.2
v 0 1.2 0.4
v 0 1.2 0.3
v 0 1.3 0.4
v 0 1.3 0.3
v 0.1 0.3 0.1
v 0.1 0.3 0
v 0.1 0.5 0.2
v 0.1 0.5 0.1
v 0.1 0.5 0
v 0.1 0.5 -0.1
v 0.1 0.7 0.4
v 0.1 0.7 0.3
v 0.1 0.8 0.3
v 0.1 0.8 0.2
v 0.1 0.8 -0.1
v 0.1 0.9 0.3
v 0.1 0.9 -0.1
v 0.1 0.9 -0.2
v 0.1 1 -0.1
v 0.1 1 -0.2
v 0.1 1.1 0.4
v 0.1 1.1 0.3
v 0.1 1.2 0.4
v 0.1 1.2 0.3
v 0.2 0.8 0.3
v 0.2 0.8 -0.2
v 0.2 0.9 0.3
v 0.2 0.9 0.2
v 0.2 0.9 -0.1
v 0.2 0.9 -0.2
v 0.2 1 0.2
v 0.2 1 -0.1
v -0.2 0.7 0.4
v -0.2 1.1 0.4
v -0.2 1.2 0.4
v -0.1 0.6 0.4
v -0.1 0.7 0.4
v -0.1 1.1 0.4
v -0.1 1.2 0.4
v -0.1 1.3 0.4
v 0 0.6 0.4
v 0 0.7 0.4
v 0 1.1 0.4
v 0 1.2 0.4
v 0 1.3 0.4
v 0.1 0.7 0.4
v 0.1 1.1 0.4
v 0.1 1.2 0.4
v -0.3 0.8 0.3
v -0.3 0.9 0.3
v -0.2 0.8 0.3
v -0.2 0.9 0.3
v 0.1 0.8 0.3
v 0.1 0.9 0.3
v 0.2 0.8 0.3
v 0.2 0.9 0.3
v -0.3 0.9 0.2
v -0.3 1 0.2
v -0.2 0.5 0.2
v -0.2 0.8 0.2
v -0.2 0.9 0.2
v -0.2 1 0.2
v -0.1 0.3 0.2
v -0.1 0.5 0.2
v -0.1 0.6 0.2
v -0.1 0.8 0.2
v 0 0.3 0.2
v 0 0.5 0.2
v 0 0.6 0.2
v 0 0.8 0.2
v 0 0.9 0.2
v 0 1 0.2
v 0.1 0.5 0.2
v 0.1 0.8 0.2
v 0.2 0.9 0.2
v 0.2 1 0.2
v -0.2 0.2 0.1
v -0.2 0.5 0.1
v -0.1 0 0.1
v -0.1 0.2 0.1
v -0.1 0.3 0.1
v -0.1 0.5 0.1
v 0 0 0.1
v 0 0.3 0.1
v 0 0.5 0.1
v 0.1 0.3 0.1
v 0.1 0.5 0.1
v -0.2 0.7 0.3
v -0.2 0.8 0.3
v -0.2 1 0.3
v -0.2 1.1 0.3
v -0.2 1.2 0.3
v -0.1 0.7 0.3
v -0.1 0.8 0.3
v -0.1 1.1 0.3
v -0.1 1.2 0.3
v -0.1 1.3 0.3
v 0 0.7 0.3
v 0 0.8 0.3
v 0 0.9 0.3
v 0 1 0.3
v 0 1.1 0.3
v 0 1.2 0.3
v 0 1.3 0.3
v 0.1 0.7 0.3
v 0.1 0.8 0.3
v 0.1 0.9 0.3
v 0.1 1.1 0.3
v 0.1 1.2 0.3
v -0.2 0.2 0
v -0.2 0.5 0
v -0.1 0 0
v -0.1 0.2 0
v -0.1 0.3 0
v -0.1 0.5 0
v 0 0 0
v 0 0.3 0
v 0 0.5 0
v 0.1 0.3 0
v 0.1 0.5 0
v -0.3 0.9 -0.1
v -0.3 1 -0.1
v -0.2 0.5 -0.1
v -0.2 0.8 -0.1
v -0.2 0.9 -0.1
v -0.2 1 -0.1
v -0.1 0.3 -0.1
v -0.1 0.5 -0.1
v 0 0.3 -0.1
v 0 0.5 -0.1
v 0.1 0.5 -0.1
v 0.1 0.8 -0.1
v 0.1 0.9 -0.1
v 0.1 1 -0.1
v 0.2 0.9 -0.1
v 0.2 1 -0.1
v -0.3 0.8 -0.2
v -0.3 0.9 -0.2
v -0.2 0.9 -0.2
v -0.2 1 -0.2
v 0.1 0.9 -0.2
v 0.1 1 -0.2
v 0.2 0.8 -0.2
v 0.2 0.9 -0.2
v -0.1 0 0.1
v 0 0 0.1
v -0.1 0 0
v 0 0 0
v -0.2 0.2 0.1
v -0.1 0.2 0.1
v -0.2 0.2 0
v -0.1 0.2 0
v -0.1 0.3 0.2
v 0 0.3 0.2
v -0.1 0.3 0.1
v 0 0.3 0.1
v 0.1 0.3 0.1
v -0.1 0.3 0
v 0 0.3 0
v 0.1 0.3 0
v -0.1 0.3 -0.1
v 0 0.3 -0.1
v -0.2 0.5 0.2
v -0.1 0.5 0.2
v 0 0.5 0.2
v 0.1 0.5 0.2
v -0.2 0.5 0.1
v -0.1 0.5 0.1
v 0 0.5 0.1
v 0.1 0.5 0.1
v -0.2 0.5 0
v -0.1 0.5 0
v 0 0.5 0
v 0.1 0.5 0
v -0.2 0.5 -0.1
v -0.1 0.5 -0.1
v 0 0.5 -0.1
v 0.1 0.5 -0.1
v -0.1 0.6 0.4
v 0 0.6 0.4
v -0.1 0.6 0.2
v 0 0.6 0.2
v -0.2 0.7 0.4
v -0.1 0.7 0.4
v 0 0.7 0.4
v 0.1 0.7 0.4
v -0.2 0.7 0.3
v -0.1 0.7 0.3
v 0 0.7 0.3
v 0.1 0.7 0.3
v -0.3 0.8 0.3
v -0.2 0.8 0.3
v -0.1 0.8 0.3
v 0 0.8 0.3
v 0.1 0.8 0.3
v 0.2 0.8 0.3
v -0.2 0.8 0.2
v -0.1 0.8 0.2
v 0 0.8 0.2
v 0.1 0.8 0.2
v -0.2 0.8 -0.1
v 0.1 0.8 -0.1
v -0.3 0.8 -0.2
v 0.2 0.8 -0.2
v -0.3 0.9 0.3
v -0.2 0.9 0.3
v 0 0.9 0.3
v 0.1 0.9 0.3
v 0.2 0.9 0.3
v -0.3 0.9 0.2
v -0.2 0.9 0.2
v 0 0.9 0.2
v 0.2 0.9 0.2
v -0.3 0.9 -0.1
v -0.2 0.9 -0.1
v 0.1 0.9 -0.1
v 0.2 0.9 -0.1
v -0.3 0.9 -0.2
v -0.2 0.9 -0.2
v 0.1 0.9 -0.2
v 0.2 0.9 -0.2
v -0.2 1 0.3
v 0 1 0.3
v -0.3 1 0.2
v -0.2 1 0.2
v 0 1 0.2
v 0.2 1 0.2
v -0.3 1 -0.1
v -0.2 1 -0.1
v 0.1 1 -0.1
v 0.2 1 -0.1
v -0.2 1 -0.2
v 0.1 1 -0.2
v -0.2 1.2 0.4
v -0.1 1.2 0.4
v 0 1.2 0.4
v 0.1 1.2 0.4
v -0.2 1.2 0.3
v -0.1 1.2 0.3
v 0 1.2 0.3
v 0.1 1.2 0.3
v -0.1 1.3 0.4
v 0 1.3 0.4
v -0.1 1.3 0.3
v 0 1.3 0.3

# faces
f 3/4/1 2/4/1 1/4/1
f 4/4/1 2/4/1 3/4/1
f 5/4/1 2/4/1 4/4/1
f 6/4/1 2/4/1 5/4/1
f 7/3/1 5/3/1 4/3/1
f 8/3/1 5/3/1 7/3/1
f 12/2/1 10/2/1 9/2/1
f 13/2/1 10/2/1 12/2/1
f 17/2/1 16/2/1 15/2/1
f 18/2/1 12/2/1 11/2/1
f 18/2/1 13/2/1 12/2/1
f 18/2/1 14/2/1 13/2/1
f 19/2/1 14/2/1 18/2/1
f 20/2/1 17/2/1 15/2/1
f 24/3/1 21/3/1 20/3/1
f 24/2/1 20/2/1 15/2/1
f 25/3/1 21/3/1 24/3/1
f 26/3/1 23/3/1 22/3/1
f 27/3/1 23/3/1 26/3/1
f 28/2/1 24/2/1 15/2/1
f 29/2/1 24/2/1 28/2/1
f 30/3/1 29/3/1 28/3/1
f 31/3/1 29/3/1 30/3/1
f 34/2/1 33/2/1 32/2/1
f 35/2/1 33/2/1 34/2/1
f 40/2/1 37/2/1 36/2/1
f 41/2/1 37/2/1 40/2/1
f 42/2/1 39/2/1 38/2/1
f 43/2/1 39/2/1 42/2/1
f 46/2/1 45/2/1 44/2/1
f 47/2/1 45/2/1 46/2/1
f 48/2/1 45/2/1 47/2/1
f 49/2/1 45/2/1 48/2/1
f 52/3/1 51/3/1 50/3/1
f 53/3/1 51/3/1 52/3/1
f 54/2/2 55/2/2 57/2/2
f 57/2/2 55/2/2 58/2/2
f 56/2/2 57/2/2 60/2/2
f 60/2/2 57/2/2 61/2/2
f 58/2/2 59/2/2 62/2/2
f 62/2/2 59/2/2 63/2/2
f 64/2/2 65/2/2 66/2/2
f 66/2/2 65/2/2 67/2/2
f 67/2/2 65/2/2 68/2/2
f 68/2/2 65/2/2 69/2/2
f 70/3/2 71/3/2 72/3/2
f 72/3/2 71/3/2 73/3/2
f 74/3/2 75/3/2 76/3/2
f 76/3/2 75/3/2 77/3/2
f 78/2/2 79/2/2 81/2/2
f 81/2/2 79/2/2 82/2/2
f 84/2/2 85/2/2 86/2/2
f 80/2/2 81/2/2 87/2/2
f 81/2/2 82/2/2 87/2/2
f 82/2/2 83/2/2 87/2/2
f 87/2/2 83/2/2 88/2/2
f 84/2/2 86/2/2 89/2/2
f 90/3/2 91/3/2 92/3/2
f 92/3/2 91/3/2 93/3/2
f 84/2/2 89/2/2 94/2/2
f 94/2/2 89/2/2 95/2/2
f 94/3/2 95/3/2 96/3/2
f 96/3/2 95/3/2 97/3/2
f 98/4/2 99/4/2 100/4/2
f 100/4/2 99/4/2 101/4/2
f 101/4/2 99/4/2 102/4/2
f 102/4/2 99/4/2 103/4/2
f 101/3/2 102/3/2 104/3/2
f 104/3/2 102/3/2 105/3/2
f 110/2/3 107/2/3 106/2/3
f 111/3/3 108/3/3 107/3/3
f 111/2/3 107/2/3 110/2/3
f 112/3/3 108/3/3 111/3/3
f 114/2/3 110/2/3 109/2/3
f 114/2/3 111/2/3 110/2/3
f 114/2/3 112/2/3 111/2/3
f 115/2/3 112/2/3 114/2/3
f 116/2/3 112/2/3 115/2/3
f 117/3/3 113/3/3 112/3/3
f 117/2/3 112/2/3 116/2/3
f 118/3/3 113/3/3 117/3/3
f 119/2/3 116/2/3 115/2/3
f 120/3/3 117/3/3 116/3/3
f 120/2/3 116/2/3 119/2/3
f 121/3/3 117/3/3 120/3/3
f 124/4/3 123/4/3 122/4/3
f 125/4/3 123/4/3 124/4/3
f 128/4/3 127/4/3 126/4/3
f 129/4/3 127/4/3 128/4/3
f 134/3/3 131/3/3 130/3/3
f 135/3/3 131/3/3 134/3/3
f 137/2/3 133/2/3 132/2/3
f 138/2/3 133/2/3 137/2/3
f 139/2/3 133/2/3 138/2/3
f 140/2/3 137/2/3 136/2/3
f 140/2/3 138/2/3 137/2/3
f 141/2/3 138/2/3 140/2/3
f 142/2/3 138/2/3 141/2/3
f 146/2/3 143/2/3 142/2/3
f 146/2/3 142/2/3 141/2/3
f 147/2/3 143/2/3 146/2/3
f 148/3/3 145/3/3 144/3/3
f 149/3/3 145/3/3 148/3/3
f 153/2/3 151/2/3 150/2/3
f 154/2/3 151/2/3 153/2/3
f 155/2/3 151/2/3 154/2/3
f 156/2/3 153/2/3 152/2/3
f 156/2/3 154/2/3 153/2/3
f 157/2/3 154/2/3 156/2/3
f 159/2/3 158/2/3 157/2/3
f 160/2/3 158/2/3 159/2/3
f 161/2/4 162/2/4 166/2/4
f 166/2/4 162/2/4 167/2/4
f 164/3/4 165/3/4 168/3/4
f 163/2/4 164/2/4 168/2/4
f 168/3/4 165/3/4 169/3/4
f 163/2/4 168/2/4 174/2/4
f 168/2/4 169/2/4 174/2/4
f 174/2/4 169/2/4 175/2/4
f 169/3/4 170/3/4 176/3/4
f 175/2/4 169/2/4 176/2/4
f 176/3/4 170/3/4 177/3/4
f 171/2/4 172/2/4 178/2/4
f 178/2/4 172/2/4 179/2/4
f 174/2/4 175/2/4 180/2/4
f 173/2/4 174/2/4 180/2/4
f 175/3/4 176/3/4 181/3/4
f 180/2/4 175/2/4 181/2/4
f 181/3/4 176/3/4 182/3/4
f 183/2/4 184/2/4 186/2/4
f 186/2/4 184/2/4 187/2/4
f 187/2/4 184/2/4 188/2/4
f 185/2/4 186/2/4 189/2/4
f 186/2/4 187/2/4 189/2/4
f 189/2/4 187/2/4 190/2/4
f 190/2/4 191/2/4 192/2/4
f 192/2/4 191/2/4 193/2/4
f 194/3/4 195/3/4 198/3/4
f 198/3/4 195/3/4 199/3/4
f 196/2/4 197/2/4 201/2/4
f 200/2/4 201/2/4 202/2/4
f 201/2/4 197/2/4 203/2/4
f 202/2/4 201/2/4 203/2/4
f 203/2/4 197/2/4 204/2/4
f 204/2/4 197/2/4 205/2/4
f 206/3/4 207/3/4 208/3/4
f 208/3/4 207/3/4 209/3/4
f 210/4/4 211/4/4 212/4/4
f 210/4/4 212/4/4 214/4/4
f 212/3/4 213/3/4 214/3/4
f 214/3/4 213/3/4 215/3/4
f 210/4/4 214/4/4 216/4/4
f 216/4/4 214/4/4 217/4/4
f 220/2/5 219/2/5 218/2/5
f 221/2/5 219/2/5 220/2/5
f 224/2/5 223/2/5 222/2/5
f 225/2/5 223/2/5 224/2/5
f 228/2/5 227/2/5 226/2/5
f 229/2/5 227/2/5 228/2/5
f 232/2/5 230/2/5 229/2/5
f 233/2/5 230/2/5 232/2/5
f 234/2/5 232/2/5 231/2/5
f 235/2/5 232/2/5 234/2/5
f 240/2/5 237/2/5 236/2/5
f 241/2/5 237/2/5 240/2/5
f 242/2/5 239/2/5 238/2/5
f 243/2/5 239/2/5 242/2/5
f 248/2/5 245/2/5 244/2/5
f 249/2/5 245/2/5 248/2/5
f 250/2/5 247/2/5 246/2/5
f 251/2/5 247/2/5 250/2/5
f 254/2/5 253/2/5 252/2/5
f 255/2/5 253/2/5 254/2/5
f 260/2/5 257/2/5 256/2/5
f 261/2/5 257/2/5 260/2/5
f 262/2/5 259/2/5 258/2/5
f 263/2/5 259/2/5 262/2/5
f 270/4/5 265/4/5 264/4/5
f 270/4/5 266/4/5 265/4/5
f 271/4/5 266/4/5 270/4/5
f 272/4/5 269/4/5 268/4/5
f 272/4/5 268/4/5 267/4/5
f 273/4/5 269/4/5 272/4/5
f 274/4/5 270/4/5 264/4/5
f 275/4/5 269/4/5 273/4/5
f 276/4/5 274/4/5 264/4/5
f 276/4/5 275/4/5 274/4/5
f 277/4/5 269/4/5 275/4/5
f 277/4/5 275/4/5 276/4/5
f 278/4/6 279/4/6 283/4/6
f 283/4/6 279/4/6 284/4/6
f 281/4/6 282/4/6 285/4/6
f 280/4/6 281/4/6 285/4/6
f 285/4/6 282/4/6 286/4/6
f 287/4/6 288/4/6 291/4/6
f 291/4/6 288/4/6 292/4/6
f 289/4/6 290/4/6 293/4/6
f 293/4/6 290/4/6 294/4/6
f 295/3/6 296/3/6 298/3/6
f 298/3/6 296/3/6 299/3/6
f 297/3/6 298/3/6 301/3/6
f 299/3/6 300/3/6 301/3/6
f 298/3/6 299/3/6 301/3/6
f 301/3/6 300/3/6 302/3/6
f 302/3/6 300/3/6 303/3/6
f 303/3/6 300/3/6 304/3/6
f 302/3/6 303/3/6 305/3/6
f 305/3/6 303/3/6 306/3/6
f 307/3/6 308/3/6 311/3/6
f 311/3/6 308/3/6 312/3/6
f 309/3/6 310/3/6 313/3/6
f 313/3/6 310/3/6 314/3/6
f 315/3/6 316/3/6 317/3/6
f 317/3/6 316/3/6 318/3/6
