# MagicaVoxel @ Ephtracy

# group
o 

# material
mtllib untitled.mtl
usemtl palette

# normals
vn -1 0 0
vn 1 0 0
vn 0 0 1
vn 0 0 -1
vn 0 -1 0
vn 0 1 0

# texcoords
vt 0.263672 0.5
vt 0.267578 0.5
vt 0.412109 0.5

# verts
v -0.6 0.2 -1.8
v -0.6 0.2 -2.6
v -0.6 0.7 -1.8
v -0.6 0.7 -2.6
v -0.6 1.8 0.9
v -0.6 1.8 -2.6
v -0.6 2.6 0.9
v -0.6 2.6 -2.6
v -0.5 0 -1.5
v -0.5 0 -2.7
v -0.5 0.2 -1.5
v -0.5 0.2 -1.6
v -0.5 0.2 -1.8
v -0.5 0.2 -2.6
v -0.5 0.7 -1.8
v -0.5 0.7 -2.6
v -0.5 1.2 -1.4
v -0.5 1.2 -1.6
v -0.5 1.7 0.9
v -0.5 1.7 -1.4
v -0.5 1.8 0.9
v -0.5 1.8 -2.6
v -0.5 2.6 0.9
v -0.5 2.6 -2.6
v -0.5 2.7 -2.6
v -0.5 2.7 -2.7
v -0.5 2.8 0.9
v -0.5 2.8 -2.6
v -0.4 0 -2.7
v -0.4 0 -2.8
v -0.4 2 1
v -0.4 2 0.9
v -0.4 2.5 1
v -0.4 2.5 0.9
v -0.4 2.6 -2.7
v -0.4 2.6 -2.8
v -0.3 0.9 -0.6
v -0.3 0.9 -1.6
v -0.3 1 -0.5
v -0.3 1 -0.6
v -0.3 1.2 -0.8
v -0.3 1.2 -1.4
v -0.3 1.2 -1.6
v -0.3 1.7 -0.5
v -0.3 1.7 -0.8
v -0.3 1.9 1
v -0.3 1.9 0.9
v -0.3 2 1
v -0.3 2 0.9
v -0.3 2.5 1
v -0.3 2.5 0.9
v -0.3 2.6 1
v -0.3 2.6 0.9
v -0.3 2.8 -2.5
v -0.3 2.8 -2.6
v -0.3 3 -2.5
v -0.3 3 -2.6
v -0.1 2.8 0.9
v -0.1 2.8 0.8
v -0.1 3 0.9
v -0.1 3 0.8
v 0 2 1
v 0 2 0.9
v 0 2.1 1
v 0 2.1 0.9
v 0 2.4 1
v 0 2.4 0.9
v 0 2.5 1
v 0 2.5 0.9
v 0 2.8 -2.5
v 0 2.8 -2.6
v 0 3 -2.5
v 0 3 -2.6
v 0.1 2.1 1
v 0.1 2.1 0.9
v 0.1 2.2 1
v 0.1 2.2 0.9
v 0.1 2.3 1
v 0.1 2.3 0.9
v 0.1 2.4 1
v 0.1 2.4 0.9
v 0.2 2.2 1
v 0.2 2.2 0.9
v 0.2 2.3 1
v 0.2 2.3 0.9
v -0.3 2.2 1
v -0.3 2.2 0.9
v -0.3 2.3 1
v -0.3 2.3 0.9
v -0.2 2.1 1
v -0.2 2.1 0.9
v -0.2 2.2 1
v -0.2 2.2 0.9
v -0.2 2.3 1
v -0.2 2.3 0.9
v -0.2 2.4 1
v -0.2 2.4 0.9
v -0.1 2 1
v -0.1 2 0.9
v -0.1 2.1 1
v -0.1 2.1 0.9
v -0.1 2.4 1
v -0.1 2.4 0.9
v -0.1 2.5 1
v -0.1 2.5 0.9
v -0.1 2.8 -2.5
v -0.1 2.8 -2.6
v -0.1 3 -2.5
v -0.1 3 -2.6
v 0 2.8 0.9
v 0 2.8 0.8
v 0 3 0.9
v 0 3 0.8
v 0.2 0.9 -0.6
v 0.2 0.9 -1.6
v 0.2 1 -0.5
v 0.2 1 -0.6
v 0.2 1.2 -0.8
v 0.2 1.2 -1.4
v 0.2 1.2 -1.6
v 0.2 1.7 -0.5
v 0.2 1.7 -0.8
v 0.2 1.9 1
v 0.2 1.9 0.9
v 0.2 2 1
v 0.2 2 0.9
v 0.2 2.5 1
v 0.2 2.5 0.9
v 0.2 2.6 1
v 0.2 2.6 0.9
v 0.2 2.8 -2.5
v 0.2 2.8 -2.6
v 0.2 3 -2.5
v 0.2 3 -2.6
v 0.3 0 -2.7
v 0.3 0 -2.8
v 0.3 2 1
v 0.3 2 0.9
v 0.3 2.5 1
v 0.3 2.5 0.9
v 0.3 2.6 -2.7
v 0.3 2.6 -2.8
v 0.4 0 -1.5
v 0.4 0 -2.7
v 0.4 0.2 -1.5
v 0.4 0.2 -1.6
v 0.4 0.2 -1.7
v 0.4 0.2 -2.6
v 0.4 0.7 -1.7
v 0.4 0.7 -2.6
v 0.4 1.2 -1.4
v 0.4 1.2 -1.6
v 0.4 1.7 0.9
v 0.4 1.7 -1.4
v 0.4 1.8 0.9
v 0.4 1.8 -2.7
v 0.4 2.6 0.9
v 0.4 2.6 -2.7
v 0.4 2.7 -2.6
v 0.4 2.7 -2.7
v 0.4 2.8 0.9
v 0.4 2.8 -2.6
v 0.5 0.2 -1.7
v 0.5 0.2 -2.6
v 0.5 0.7 -1.7
v 0.5 0.7 -2.6
v 0.5 1.8 0.9
v 0.5 1.8 -2.7
v 0.5 2.6 0.9
v 0.5 2.6 -2.7
v -0.4 2 1
v -0.4 2.5 1
v -0.3 1.9 1
v -0.3 2 1
v -0.3 2.2 1
v -0.3 2.3 1
v -0.3 2.5 1
v -0.3 2.6 1
v -0.2 2.1 1
v -0.2 2.2 1
v -0.2 2.3 1
v -0.2 2.4 1
v -0.1 2 1
v -0.1 2.1 1
v -0.1 2.4 1
v -0.1 2.5 1
v 0 2 1
v 0 2.1 1
v 0 2.4 1
v 0 2.5 1
v 0.1 2.1 1
v 0.1 2.2 1
v 0.1 2.3 1
v 0.1 2.4 1
v 0.2 1.9 1
v 0.2 2 1
v 0.2 2.2 1
v 0.2 2.3 1
v 0.2 2.5 1
v 0.2 2.6 1
v 0.3 2 1
v 0.3 2.5 1
v -0.6 1.8 0.9
v -0.6 2.6 0.9
v -0.5 1.7 0.9
v -0.5 1.8 0.9
v -0.5 2.6 0.9
v -0.5 2.8 0.9
v -0.4 2 0.9
v -0.4 2.5 0.9
v -0.3 1.9 0.9
v -0.3 2 0.9
v -0.3 2.2 0.9
v -0.3 2.3 0.9
v -0.3 2.5 0.9
v -0.3 2.6 0.9
v -0.2 2.1 0.9
v -0.2 2.2 0.9
v -0.2 2.3 0.9
v -0.2 2.4 0.9
v -0.1 2 0.9
v -0.1 2.1 0.9
v -0.1 2.4 0.9
v -0.1 2.5 0.9
v -0.1 2.8 0.9
v -0.1 3 0.9
v 0 2 0.9
v 0 2.1 0.9
v 0 2.4 0.9
v 0 2.5 0.9
v 0 2.8 0.9
v 0 3 0.9
v 0.1 2.1 0.9
v 0.1 2.2 0.9
v 0.1 2.3 0.9
v 0.1 2.4 0.9
v 0.2 1.9 0.9
v 0.2 2 0.9
v 0.2 2.2 0.9
v 0.2 2.3 0.9
v 0.2 2.5 0.9
v 0.2 2.6 0.9
v 0.3 2 0.9
v 0.3 2.5 0.9
v 0.4 1.7 0.9
v 0.4 1.8 0.9
v 0.4 2.6 0.9
v 0.4 2.8 0.9
v 0.5 1.8 0.9
v 0.5 2.6 0.9
v -0.3 1 -0.5
v -0.3 1.7 -0.5
v 0.2 1 -0.5
v 0.2 1.7 -0.5
v -0.3 0.9 -0.6
v -0.3 1 -0.6
v 0.2 0.9 -0.6
v 0.2 1 -0.6
v -0.5 1.2 -1.4
v -0.5 1.7 -1.4
v -0.3 1.2 -1.4
v 0.2 1.2 -1.4
v 0.4 1.2 -1.4
v 0.4 1.7 -1.4
v -0.5 0 -1.5
v -0.5 0.2 -1.5
v 0.4 0 -1.5
v 0.4 0.2 -1.5
v -0.5 0.2 -1.6
v -0.5 1.2 -1.6
v -0.3 0.9 -1.6
v -0.3 1.2 -1.6
v 0.2 0.9 -1.6
v 0.2 1.2 -1.6
v 0.4 0.2 -1.6
v 0.4 1.2 -1.6
v 0.4 0.2 -1.7
v 0.4 0.7 -1.7
v 0.5 0.2 -1.7
v 0.5 0.7 -1.7
v -0.6 0.2 -1.8
v -0.6 0.7 -1.8
v -0.5 0.2 -1.8
v -0.5 0.7 -1.8
v -0.3 2.8 -2.5
v -0.3 3 -2.5
v -0.1 2.8 -2.5
v -0.1 3 -2.5
v 0 2.8 -2.5
v 0 3 -2.5
v 0.2 2.8 -2.5
v 0.2 3 -2.5
v -0.1 2.8 0.8
v -0.1 3 0.8
v 0 2.8 0.8
v 0 3 0.8
v -0.3 1.2 -0.8
v -0.3 1.7 -0.8
v 0.2 1.2 -0.8
v 0.2 1.7 -0.8
v -0.6 0.2 -2.6
v -0.6 0.7 -2.6
v -0.6 1.8 -2.6
v -0.6 2.6 -2.6
v -0.5 0.2 -2.6
v -0.5 0.7 -2.6
v -0.5 1.8 -2.6
v -0.5 2.6 -2.6
v -0.5 2.7 -2.6
v -0.5 2.8 -2.6
v -0.3 2.8 -2.6
v -0.3 3 -2.6
v -0.1 2.8 -2.6
v -0.1 3 -2.6
v 0 2.8 -2.6
v 0 3 -2.6
v 0.2 2.8 -2.6
v 0.2 3 -2.6
v 0.4 0.2 -2.6
v 0.4 0.7 -2.6
v 0.4 2.7 -2.6
v 0.4 2.8 -2.6
v 0.5 0.2 -2.6
v 0.5 0.7 -2.6
v -0.5 0 -2.7
v -0.5 2.7 -2.7
v -0.4 0 -2.7
v -0.4 2.6 -2.7
v 0.3 0 -2.7
v 0.3 2.6 -2.7
v 0.4 0 -2.7
v 0.4 1.8 -2.7
v 0.4 2.6 -2.7
v 0.4 2.7 -2.7
v 0.5 1.8 -2.7
v 0.5 2.6 -2.7
v -0.4 0 -2.8
v -0.4 2.6 -2.8
v 0.3 0 -2.8
v 0.3 2.6 -2.8
v -0.5 0 -1.5
v 0.4 0 -1.5
v -0.5 0 -2.7
v -0.4 0 -2.7
v 0.3 0 -2.7
v 0.4 0 -2.7
v -0.4 0 -2.8
v 0.3 0 -2.8
v 0.4 0.2 -1.7
v 0.5 0.2 -1.7
v -0.6 0.2 -1.8
v -0.5 0.2 -1.8
v -0.6 0.2 -2.6
v -0.5 0.2 -2.6
v 0.4 0.2 -2.6
v 0.5 0.2 -2.6
v -0.3 0.9 -0.6
v 0.2 0.9 -0.6
v -0.3 0.9 -1.6
v 0.2 0.9 -1.6
v -0.3 1 -0.5
v 0.2 1 -0.5
v -0.3 1 -0.6
v 0.2 1 -0.6
v -0.5 1.2 -1.4
v -0.3 1.2 -1.4
v 0.2 1.2 -1.4
v 0.4 1.2 -1.4
v -0.5 1.2 -1.6
v -0.3 1.2 -1.6
v 0.2 1.2 -1.6
v 0.4 1.2 -1.6
v -0.5 1.7 0.9
v 0.4 1.7 0.9
v -0.3 1.7 -0.5
v 0.2 1.7 -0.5
v -0.3 1.7 -0.8
v 0.2 1.7 -0.8
v -0.5 1.7 -1.4
v 0.4 1.7 -1.4
v -0.6 1.8 0.9
v -0.5 1.8 0.9
v 0.4 1.8 0.9
v 0.5 1.8 0.9
v -0.6 1.8 -2.6
v -0.5 1.8 -2.6
v 0.4 1.8 -2.7
v 0.5 1.8 -2.7
v -0.3 1.9 1
v 0.2 1.9 1
v -0.3 1.9 0.9
v 0.2 1.9 0.9
v -0.4 2 1
v -0.3 2 1
v 0.2 2 1
v 0.3 2 1
v -0.4 2 0.9
v -0.3 2 0.9
v 0.2 2 0.9
v 0.3 2 0.9
v -0.3 2.3 1
v -0.2 2.3 1
v 0.1 2.3 1
v 0.2 2.3 1
v -0.3 2.3 0.9
v -0.2 2.3 0.9
v 0.1 2.3 0.9
v 0.2 2.3 0.9
v -0.2 2.4 1
v -0.1 2.4 1
v 0 2.4 1
v 0.1 2.4 1
v -0.2 2.4 0.9
v -0.1 2.4 0.9
v 0 2.4 0.9
v 0.1 2.4 0.9
v -0.1 2.5 1
v 0 2.5 1
v -0.1 2.5 0.9
v 0 2.5 0.9
v -0.5 0.2 -1.5
v 0.4 0.2 -1.5
v -0.5 0.2 -1.6
v 0.4 0.2 -1.6
v 0.4 0.7 -1.7
v 0.5 0.7 -1.7
v -0.6 0.7 -1.8
v -0.5 0.7 -1.8
v -0.6 0.7 -2.6
v -0.5 0.7 -2.6
v 0.4 0.7 -2.6
v 0.5 0.7 -2.6
v -0.3 1.2 -0.8
v 0.2 1.2 -0.8
v -0.3 1.2 -1.4
v 0.2 1.2 -1.4
v -0.1 2 1
v 0 2 1
v -0.1 2 0.9
v 0 2 0.9
v -0.2 2.1 1
v -0.1 2.1 1
v 0 2.1 1
v 0.1 2.1 1
v -0.2 2.1 0.9
v -0.1 2.1 0.9
v 0 2.1 0.9
v 0.1 2.1 0.9
v -0.3 2.2 1
v -0.2 2.2 1
v 0.1 2.2 1
v 0.2 2.2 1
v -0.3 2.2 0.9
v -0.2 2.2 0.9
v 0.1 2.2 0.9
v 0.2 2.2 0.9
v -0.4 2.5 1
v -0.3 2.5 1
v 0.2 2.5 1
v 0.3 2.5 1
v -0.4 2.5 0.9
v -0.3 2.5 0.9
v 0.2 2.5 0.9
v 0.3 2.5 0.9
v -0.3 2.6 1
v 0.2 2.6 1
v -0.6 2.6 0.9
v -0.5 2.6 0.9
v -0.3 2.6 0.9
v 0.2 2.6 0.9
v 0.4 2.6 0.9
v 0.5 2.6 0.9
v -0.6 2.6 -2.6
v -0.5 2.6 -2.6
v -0.4 2.6 -2.7
v 0.3 2.6 -2.7
v 0.4 2.6 -2.7
v 0.5 2.6 -2.7
v -0.4 2.6 -2.8
v 0.3 2.6 -2.8
v -0.5 2.7 -2.6
v 0.4 2.7 -2.6
v -0.5 2.7 -2.7
v 0.4 2.7 -2.7
v -0.5 2.8 0.9
v -0.1 2.8 0.9
v 0 2.8 0.9
v 0.4 2.8 0.9
v -0.1 2.8 0.8
v 0 2.8 0.8
v -0.3 2.8 -2.5
v -0.1 2.8 -2.5
v 0 2.8 -2.5
v 0.2 2.8 -2.5
v -0.5 2.8 -2.6
v -0.3 2.8 -2.6
v -0.1 2.8 -2.6
v 0 2.8 -2.6
v 0.2 2.8 -2.6
v 0.4 2.8 -2.6
v -0.1 3 0.9
v 0 3 0.9
v -0.1 3 0.8
v 0 3 0.8
v -0.3 3 -2.5
v -0.1 3 -2.5
v 0 3 -2.5
v 0.2 3 -2.5
v -0.3 3 -2.6
v -0.1 3 -2.6
v 0 3 -2.6
v 0.2 3 -2.6

# faces
f 3/2/1 2/2/1 1/2/1
f 4/2/1 2/2/1 3/2/1
f 7/2/1 6/2/1 5/2/1
f 8/2/1 6/2/1 7/2/1
f 11/2/1 10/2/1 9/2/1
f 12/2/1 10/2/1 11/2/1
f 13/2/1 10/2/1 12/2/1
f 14/2/1 10/2/1 13/2/1
f 15/2/1 13/2/1 12/2/1
f 16/2/1 10/2/1 14/2/1
f 18/2/1 15/2/1 12/2/1
f 18/2/1 16/2/1 15/2/1
f 20/2/1 18/2/1 17/2/1
f 21/2/1 20/2/1 19/2/1
f 22/2/1 10/2/1 16/2/1
f 22/2/1 20/2/1 21/2/1
f 22/2/1 16/2/1 18/2/1
f 22/2/1 18/2/1 20/2/1
f 24/2/1 10/2/1 22/2/1
f 25/2/1 10/2/1 24/2/1
f 25/2/1 24/2/1 23/2/1
f 26/2/1 10/2/1 25/2/1
f 27/2/1 25/2/1 23/2/1
f 28/2/1 25/2/1 27/2/1
f 33/3/1 32/3/1 31/3/1
f 34/3/1 32/3/1 33/3/1
f 35/2/1 30/2/1 29/2/1
f 36/2/1 30/2/1 35/2/1
f 40/3/1 38/3/1 37/3/1
f 41/3/1 38/3/1 40/3/1
f 41/3/1 40/3/1 39/3/1
f 42/3/1 38/3/1 41/3/1
f 43/3/1 38/3/1 42/3/1
f 44/3/1 41/3/1 39/3/1
f 45/3/1 41/3/1 44/3/1
f 48/3/1 47/3/1 46/3/1
f 49/3/1 47/3/1 48/3/1
f 52/3/1 51/3/1 50/3/1
f 53/3/1 51/3/1 52/3/1
f 56/3/1 55/3/1 54/3/1
f 57/3/1 55/3/1 56/3/1
f 60/3/1 59/3/1 58/3/1
f 61/3/1 59/3/1 60/3/1
f 64/3/1 63/3/1 62/3/1
f 65/3/1 63/3/1 64/3/1
f 68/3/1 67/3/1 66/3/1
f 69/3/1 67/3/1 68/3/1
f 72/3/1 71/3/1 70/3/1
f 73/3/1 71/3/1 72/3/1
f 76/3/1 75/3/1 74/3/1
f 77/3/1 75/3/1 76/3/1
f 80/3/1 79/3/1 78/3/1
f 81/3/1 79/3/1 80/3/1
f 84/3/1 83/3/1 82/3/1
f 85/3/1 83/3/1 84/3/1
f 86/3/2 87/3/2 88/3/2
f 88/3/2 87/3/2 89/3/2
f 90/3/2 91/3/2 92/3/2
f 92/3/2 91/3/2 93/3/2
f 94/3/2 95/3/2 96/3/2
f 96/3/2 95/3/2 97/3/2
f 98/3/2 99/3/2 100/3/2
f 100/3/2 99/3/2 101/3/2
f 102/3/2 103/3/2 104/3/2
f 104/3/2 103/3/2 105/3/2
f 106/3/2 107/3/2 108/3/2
f 108/3/2 107/3/2 109/3/2
f 110/3/2 111/3/2 112/3/2
f 112/3/2 111/3/2 113/3/2
f 114/3/2 115/3/2 117/3/2
f 117/3/2 115/3/2 118/3/2
f 116/3/2 117/3/2 118/3/2
f 118/3/2 115/3/2 119/3/2
f 119/3/2 115/3/2 120/3/2
f 116/3/2 118/3/2 121/3/2
f 121/3/2 118/3/2 122/3/2
f 123/3/2 124/3/2 125/3/2
f 125/3/2 124/3/2 126/3/2
f 127/3/2 128/3/2 129/3/2
f 129/3/2 128/3/2 130/3/2
f 131/3/2 132/3/2 133/3/2
f 133/3/2 132/3/2 134/3/2
f 137/3/2 138/3/2 139/3/2
f 139/3/2 138/3/2 140/3/2
f 135/2/2 136/2/2 141/2/2
f 141/2/2 136/2/2 142/2/2
f 143/2/2 144/2/2 145/2/2
f 145/2/2 144/2/2 146/2/2
f 146/2/2 144/2/2 147/2/2
f 147/2/2 144/2/2 148/2/2
f 146/2/2 147/2/2 149/2/2
f 148/2/2 144/2/2 150/2/2
f 146/2/2 149/2/2 152/2/2
f 149/2/2 150/2/2 152/2/2
f 151/2/2 152/2/2 154/2/2
f 153/2/2 154/2/2 155/2/2
f 150/2/2 144/2/2 156/2/2
f 155/2/2 154/2/2 156/2/2
f 152/2/2 150/2/2 156/2/2
f 154/2/2 152/2/2 156/2/2
f 157/2/2 158/2/2 159/2/2
f 159/2/2 158/2/2 160/2/2
f 157/2/2 159/2/2 161/2/2
f 161/2/2 159/2/2 162/2/2
f 163/2/2 164/2/2 165/2/2
f 165/2/2 164/2/2 166/2/2
f 167/2/2 168/2/2 169/2/2
f 169/2/2 168/2/2 170/2/2
f 174/3/3 172/3/3 171/3/3
f 175/3/3 172/3/3 174/3/3
f 176/3/3 172/3/3 175/3/3
f 177/3/3 172/3/3 176/3/3
f 179/3/3 174/3/3 173/3/3
f 179/3/3 175/3/3 174/3/3
f 180/3/3 175/3/3 179/3/3
f 181/3/3 178/3/3 177/3/3
f 181/3/3 177/3/3 176/3/3
f 182/3/3 178/3/3 181/3/3
f 183/3/3 179/3/3 173/3/3
f 184/3/3 179/3/3 183/3/3
f 185/3/3 178/3/3 182/3/3
f 186/3/3 178/3/3 185/3/3
f 187/3/3 183/3/3 173/3/3
f 190/3/3 178/3/3 186/3/3
f 191/3/3 188/3/3 187/3/3
f 194/3/3 190/3/3 189/3/3
f 195/3/3 192/3/3 191/3/3
f 195/3/3 187/3/3 173/3/3
f 195/3/3 191/3/3 187/3/3
f 196/3/3 192/3/3 195/3/3
f 197/3/3 192/3/3 196/3/3
f 198/3/3 194/3/3 193/3/3
f 199/3/3 190/3/3 194/3/3
f 199/3/3 178/3/3 190/3/3
f 199/3/3 194/3/3 198/3/3
f 200/3/3 178/3/3 199/3/3
f 201/3/3 197/3/3 196/3/3
f 201/3/3 198/3/3 197/3/3
f 201/3/3 199/3/3 198/3/3
f 202/3/3 199/3/3 201/3/3
f 206/2/3 204/2/3 203/2/3
f 207/2/3 204/2/3 206/2/3
f 209/2/3 206/2/3 205/2/3
f 209/2/3 208/2/3 207/2/3
f 209/2/3 207/2/3 206/2/3
f 210/2/3 208/2/3 209/2/3
f 211/2/3 209/2/3 205/2/3
f 212/2/3 209/2/3 211/2/3
f 215/2/3 208/2/3 210/2/3
f 216/2/3 208/2/3 215/2/3
f 218/2/3 214/2/3 213/2/3
f 219/2/3 214/2/3 218/2/3
f 222/2/3 218/2/3 217/2/3
f 222/2/3 220/2/3 219/2/3
f 222/2/3 219/2/3 218/2/3
f 223/2/3 220/2/3 222/2/3
f 225/2/3 208/2/3 216/2/3
f 227/2/3 224/2/3 223/2/3
f 227/2/3 222/2/3 221/2/3
f 227/2/3 223/2/3 222/2/3
f 228/2/3 224/2/3 227/2/3
f 229/2/3 224/2/3 228/2/3
f 230/2/3 224/2/3 229/2/3
f 231/3/3 226/3/3 225/3/3
f 231/2/3 225/2/3 216/2/3
f 232/3/3 226/3/3 231/3/3
f 233/2/3 229/2/3 228/2/3
f 234/2/3 229/2/3 233/2/3
f 235/2/3 229/2/3 234/2/3
f 236/2/3 229/2/3 235/2/3
f 237/2/3 211/2/3 205/2/3
f 239/2/3 235/2/3 234/2/3
f 240/2/3 235/2/3 239/2/3
f 242/2/3 231/2/3 216/2/3
f 243/2/3 238/2/3 237/2/3
f 244/2/3 242/2/3 241/2/3
f 245/2/3 243/2/3 237/2/3
f 245/2/3 244/2/3 243/2/3
f 245/2/3 237/2/3 205/2/3
f 246/2/3 244/2/3 245/2/3
f 247/2/3 242/2/3 244/2/3
f 247/2/3 244/2/3 246/2/3
f 247/2/3 231/2/3 242/2/3
f 248/2/3 231/2/3 247/2/3
f 249/2/3 247/2/3 246/2/3
f 250/2/3 247/2/3 249/2/3
f 253/3/3 252/3/3 251/3/3
f 254/3/3 252/3/3 253/3/3
f 257/3/3 256/3/3 255/3/3
f 258/3/3 256/3/3 257/3/3
f 261/2/3 260/2/3 259/2/3
f 262/2/3 260/2/3 261/2/3
f 263/2/3 260/2/3 262/2/3
f 264/2/3 260/2/3 263/2/3
f 267/2/3 266/2/3 265/2/3
f 268/2/3 266/2/3 267/2/3
f 271/2/3 270/2/3 269/2/3
f 272/2/3 270/2/3 271/2/3
f 273/2/3 271/2/3 269/2/3
f 275/2/3 273/2/3 269/2/3
f 275/2/3 274/2/3 273/2/3
f 276/2/3 274/2/3 275/2/3
f 279/2/3 278/2/3 277/2/3
f 280/2/3 278/2/3 279/2/3
f 283/2/3 282/2/3 281/2/3
f 284/2/3 282/2/3 283/2/3
f 287/3/3 286/3/3 285/3/3
f 288/3/3 286/3/3 287/3/3
f 291/3/3 290/3/3 289/3/3
f 292/3/3 290/3/3 291/3/3
f 293/3/4 294/3/4 295/3/4
f 295/3/4 294/3/4 296/3/4
f 297/3/4 298/3/4 299/3/4
f 299/3/4 298/3/4 300/3/4
f 301/2/4 302/2/4 305/2/4
f 305/2/4 302/2/4 306/2/4
f 303/2/4 304/2/4 307/2/4
f 307/2/4 304/2/4 308/2/4
f 309/2/4 310/2/4 311/2/4
f 309/2/4 311/2/4 313/2/4
f 311/3/4 312/3/4 313/3/4
f 313/3/4 312/3/4 314/3/4
f 309/2/4 313/2/4 315/2/4
f 309/2/4 315/2/4 317/2/4
f 315/3/4 316/3/4 317/3/4
f 317/3/4 316/3/4 318/3/4
f 309/2/4 317/2/4 321/2/4
f 321/2/4 317/2/4 322/2/4
f 319/2/4 320/2/4 323/2/4
f 323/2/4 320/2/4 324/2/4
f 325/2/4 326/2/4 327/2/4
f 327/2/4 326/2/4 328/2/4
f 328/2/4 326/2/4 330/2/4
f 329/2/4 330/2/4 331/2/4
f 331/2/4 330/2/4 332/2/4
f 330/2/4 326/2/4 333/2/4
f 332/2/4 330/2/4 333/2/4
f 333/2/4 326/2/4 334/2/4
f 332/2/4 333/2/4 335/2/4
f 335/2/4 333/2/4 336/2/4
f 337/2/4 338/2/4 339/2/4
f 339/2/4 338/2/4 340/2/4
f 343/2/5 342/2/5 341/2/5
f 344/2/5 342/2/5 343/2/5
f 345/2/5 342/2/5 344/2/5
f 346/2/5 342/2/5 345/2/5
f 347/2/5 345/2/5 344/2/5
f 348/2/5 345/2/5 347/2/5
f 353/2/5 352/2/5 351/2/5
f 354/2/5 352/2/5 353/2/5
f 355/2/5 350/2/5 349/2/5
f 356/2/5 350/2/5 355/2/5
f 359/3/5 358/3/5 357/3/5
f 360/3/5 358/3/5 359/3/5
f 363/3/5 362/3/5 361/3/5
f 364/3/5 362/3/5 363/3/5
f 369/2/5 366/2/5 365/2/5
f 370/2/5 366/2/5 369/2/5
f 371/2/5 368/2/5 367/2/5
f 372/2/5 368/2/5 371/2/5
f 375/2/5 374/2/5 373/2/5
f 376/2/5 374/2/5 375/2/5
f 377/2/5 375/2/5 373/2/5
f 378/2/5 374/2/5 376/2/5
f 379/2/5 377/2/5 373/2/5
f 379/2/5 378/2/5 377/2/5
f 380/2/5 374/2/5 378/2/5
f 380/2/5 378/2/5 379/2/5
f 385/2/5 382/2/5 381/2/5
f 386/2/5 382/2/5 385/2/5
f 387/2/5 384/2/5 383/2/5
f 388/2/5 384/2/5 387/2/5
f 391/3/5 390/3/5 389/3/5
f 392/3/5 390/3/5 391/3/5
f 397/3/5 394/3/5 393/3/5
f 398/3/5 394/3/5 397/3/5
f 399/3/5 396/3/5 395/3/5
f 400/3/5 396/3/5 399/3/5
f 405/3/5 402/3/5 401/3/5
f 406/3/5 402/3/5 405/3/5
f 407/3/5 404/3/5 403/3/5
f 408/3/5 404/3/5 407/3/5
f 413/3/5 410/3/5 409/3/5
f 414/3/5 410/3/5 413/3/5
f 415/3/5 412/3/5 411/3/5
f 416/3/5 412/3/5 415/3/5
f 419/3/5 418/3/5 417/3/5
f 420/3/5 418/3/5 419/3/5
f 421/2/6 422/2/6 423/2/6
f 423/2/6 422/2/6 424/2/6
f 427/2/6 428/2/6 429/2/6
f 429/2/6 428/2/6 430/2/6
f 425/2/6 426/2/6 431/2/6
f 431/2/6 426/2/6 432/2/6
f 433/3/6 434/3/6 435/3/6
f 435/3/6 434/3/6 436/3/6
f 437/3/6 438/3/6 439/3/6
f 439/3/6 438/3/6 440/3/6
f 441/3/6 442/3/6 445/3/6
f 445/3/6 442/3/6 446/3/6
f 443/3/6 444/3/6 447/3/6
f 447/3/6 444/3/6 448/3/6
f 449/3/6 450/3/6 453/3/6
f 453/3/6 450/3/6 454/3/6
f 451/3/6 452/3/6 455/3/6
f 455/3/6 452/3/6 456/3/6
f 457/3/6 458/3/6 461/3/6
f 461/3/6 458/3/6 462/3/6
f 459/3/6 460/3/6 463/3/6
f 463/3/6 460/3/6 464/3/6
f 465/3/6 466/3/6 469/3/6
f 469/3/6 466/3/6 470/3/6
f 467/2/6 468/2/6 473/2/6
f 473/2/6 468/2/6 474/2/6
f 471/2/6 472/2/6 477/2/6
f 477/2/6 472/2/6 478/2/6
f 475/2/6 476/2/6 479/2/6
f 479/2/6 476/2/6 480/2/6
f 481/2/6 482/2/6 483/2/6
f 483/2/6 482/2/6 484/2/6
f 485/2/6 486/2/6 489/2/6
f 487/2/6 488/2/6 490/2/6
f 485/2/6 489/2/6 491/2/6
f 489/2/6 490/2/6 491/2/6
f 491/2/6 490/2/6 492/2/6
f 490/2/6 488/2/6 493/2/6
f 492/2/6 490/2/6 493/2/6
f 493/2/6 488/2/6 494/2/6
f 485/2/6 491/2/6 495/2/6
f 495/2/6 491/2/6 496/2/6
f 492/2/6 493/2/6 497/2/6
f 497/2/6 493/2/6 498/2/6
f 494/2/6 488/2/6 499/2/6
f 499/2/6 488/2/6 500/2/6
f 501/3/6 502/3/6 503/3/6
f 503/3/6 502/3/6 504/3/6
f 505/3/6 506/3/6 509/3/6
f 509/3/6 506/3/6 510/3/6
f 507/3/6 508/3/6 511/3/6
f 511/3/6 508/3/6 512/3/6
